Engine/Binaries/Win64/UE4Game.pdb	2018-06-01T11:41:11.846Z
Engine/Binaries/ThirdParty/PhysX/Win64/VS2015/PxFoundationPROFILE_x64.pdb	2018-03-06T11:54:45.001Z
Engine/Binaries/ThirdParty/PhysX/Win64/VS2015/PxPvdSDKPROFILE_x64.pdb	2018-03-06T11:55:06.332Z
Engine/Binaries/ThirdParty/PhysX/Win64/VS2015/PhysX3PROFILE_x64.pdb	2018-03-06T11:55:23.284Z
Engine/Binaries/ThirdParty/PhysX/Win64/VS2015/PhysX3CookingPROFILE_x64.pdb	2018-03-06T11:55:51.521Z
Engine/Binaries/ThirdParty/PhysX/Win64/VS2015/PhysX3CommonPROFILE_x64.pdb	2018-03-06T11:55:27.345Z
Engine/Binaries/ThirdParty/PhysX/Win64/VS2015/APEX_ClothingPROFILE_x64.pdb	2018-03-06T11:56:20.739Z
Engine/Binaries/ThirdParty/PhysX/Win64/VS2015/APEX_DestructiblePROFILE_x64.pdb	2018-03-06T11:56:17.708Z
Engine/Binaries/ThirdParty/PhysX/Win64/VS2015/APEX_LegacyPROFILE_x64.pdb	2018-03-06T11:55:25.059Z
Engine/Binaries/ThirdParty/PhysX/Win64/VS2015/ApexFrameworkPROFILE_x64.pdb	2018-03-06T11:56:22.170Z
Engine/Binaries/ThirdParty/PhysX/Win64/VS2015/NvClothPROFILE_x64.pdb	2018-03-06T11:55:00.948Z
